{
    "title": "Wooden TARDIS Extension",
    "type": "vehicle",
    "tags": [ "roleplay", "fun" ],
    "ignore":
    [
        "*.md",
        "*.txt",
        "*.fgd",
        "*.psd",
        "*.vcproj",
        "*.svn*",
        "*.git*",
        ".vscode*",
        "*.sh",
        "*.gma",
        "CODEOWNERS",
        "assets/*"
    ],
    "workshop_id": "2787874495",
    "icon_path": "assets/icon.jpg"
}